Returns,Stock
1.64,Stock1
1.72,Stock1
1.68,Stock1
1.77,Stock1
1.56,Stock1
1.95,Stock1
1.78,Stock2
1.91,Stock2
1.97,Stock2
1.82,Stock2
1.85,Stock2
1.77,Stock2
1.75,Stock3
1.93,Stock3
1.78,Stock3
1.71,Stock3
1.63,Stock3
1.76,Stock3
1.55,Stock4
1.66,Stock4
1.49,Stock4
1.64,Stock4
1.7,Stock4
1.68,Stock4
