"","alvR","bmwR","cbkR","tkaR"
"1",-0.00828783796252859,-0.00789020978337928,-0.00676821534613874,-0.0155926338435395
"2",-0.0054873094863148,0.00789020978337921,-0.00168492036491963,0.011767074472556
"3",0.00884221318419946,-0.0100883579443408,-0.00336134770270477,0.00805064727716699
"4",0.00324578033346721,-0.00125391865959381,0.0101181301655845,0.0143441110310197
"5",0.0117484546368444,0.0110254700117079,-0.0117945764928368,0.00039054872591695
"6",0.0266682470821613,-0.00410937831333457,0.0101010959865039,0.0197245053477786
"7",-0.0173658544198477,-0.0125393492527354,-0.0267127736534001,0.000398485759407335
"8",-0.0103982831829508,0.00468384931242644,-0.0435201633777276,-0.0011949812216671
"9",0.0186714673718786,0.018957913744614,0.0634875488915961,0.0217312374621093
"10",-0.00544084438524802,-0.000318928403277324,-0.0033557078469723,-0.00608397739543611
"11",0.00742669585082354,-0.00381922806699538,0.00672271439487674,0.0229048868179332
"12",0.0171672657911857,0.00190779072172742,-0.0134005355374821,-0.00618686238257457
"13",0.0177244040723284,-0.00127226480265665,0.0100335289895778,0.0136619802463632
"14",-0.0137986091234299,-0.0163938097756764,-0.0232568621642672,-0.011191826664301
"15",-0.0107276853879399,-0.0118123847844828,-0.0179012103292403,-0.0147302172404033
"16",-0.0103653753521443,-0.0043169971454009,-0.00963089306096119,-0.0161163842824576
"17",0.00236333215292644,0.017067908512148,0.00320000273067085,0.00400481111951249
"18",0.00124610608024716,0.0167275479960686,0.0145281005629098,0.00241060783668734
"19",-0.00385788543942063,-0.0145342210945391,-0.030426686630708,0.00201328837885555
"20",0.0337259624341397,0.0218813233023024,0.0191088616980465,0.0340266481043413
"21",-0.00933450930998051,-0.0268875915804465,-0.00321027563024832,-0.0083056955872784
"22",0.00971998955889145,0.0310643044796176,0.0243321006595307,0.0204728270159524
"23",-0.0380782261169142,-0.0273119548610671,-0.0402306867273289,-0.041345285186394
"24",0.00160960846984983,-0.00500001041670564,-0.0156497716671278,0.00365186041877102
"25",-0.00445104592425942,-0.0145445856562645,-0.0335909444360354,-0.00162469572700192
"26",0.0242239338857058,0.00122963433876417,0.0166544349051373,0.0254843220134816
"27",-0.00805643833912618,-0.0134435266327024,-0.0389270705142604,-0.00787895429812964
"28",-0.00600001800009703,-0.020427264803662,-0.0289455808850777,-0.015574085278134
"29",-0.00559250820673516,0.000297397771708885,-0.00284900477607483,0.00448339858397585
"30",-0.0120720855097692,-0.0208984794891312,-0.00990807822469607,-0.00488998529419179
"31",0.0205351105081517,0.0331685720809454,0.0156142278015508,0.0431960841549313
"32",0.00765325860894256,0.00846693900038238,-0.0268188268144139,0.0123853814691856
"33",0.00733159648623267,0.00517583740340422,-0.0165749650942127,-0.00642538085537103
"34",-0.00152129846784353,0.00950781583476954,0.0179686935428163,0.0202724216630172
"35",0.00329907671384264,-0.0228494327723438,-0.0247946586132163,-0.00997190140505155
"36",0.0419188083070005,0.0115117902604981,0.0559586536480444,0.0253399316333653
"37",0.00678239184831657,0.00887534517668464,0.0115775533424429,0.0106762579913419
"38",-0.00731240378599213,0.0151776182851017,-0.0469169197877517,0.00898478640781526
"39",0.0207462436430476,0.0246457972068279,0.0425596144187959,0.031166592238419
"40",-0.0126328786608507,-0.0647184473683022,-0.0411697601297416,-0.0166208812360403
"41",0.00858374369139144,0.00933882370885537,0.0125963876856858,0.00919969689842342
"42",-0.0452947355051245,-0.0188882845202059,-0.0359651486935152,-0.0322828670812971
"43",0.0355097904680988,0.0240468454968551,0.0602001195389731,0.0276724393665147
"44",-0.0150916287643295,-0.0396652563924316,-0.0642679217582985,-0.0628408988391797
"45",-0.000656728203809618,-0.0327898228229908,-0.0578347750426014,-0.0234802676088425
"46",-0.0445545157862436,-0.00929453247924977,-0.0388276700117373,-0.0171516440519942
"47",-0.00401053301060984,0.0107103616836214,0.004926118336056,0.0049896153414766
"48",-0.00100012509899155,-0.000849738048580553,-0.0267981931547243,-0.0275454208845951
"49",-0.00684891538424642,0.0139702913578494,-0.00240096153753815,-0.00445074576506997
"50",-0.0162485110958226,0.0124225199985571,-0.00954661188358,-0.0108413027306295
"51",-0.000976324217167703,0.0415490029128725,0.00476191376024356,0.00882476645543666
"52",-0.013087923126416,-0.00995033085316798,-0.0305546683219725,-0.0227056159401259
"53",-0.00922770044715853,-0.0134110190600058,-0.00577035646133625,0.0130824462486649
"54",0.0167201826275077,0.0251811866301598,0.032751465292444,0.0365745764013081
"55",-0.0143315513711761,-0.0102688912035137,-0.00118835426937868,0.0116570845422129
"56",0.010699146360169,0.0209511231035376,0.0143543134516831,0.0113709374269797
"57",0.00460327887367668,-0.00642302254062771,-0.0060060240602117,-0.00253807242847111
"58",0.00547879863207803,0.0275090750999459,-0.0047789816163508,0.0392038142677624
"59",0.0028119096711005,-0.00749301039347623,0.0168273201325253,-0.00744148761168277
"60",0.0376744068527468,0.0194729771266588,0.0586568621562894,0.031903458963477
"61",0.00945210766938384,-0.00190114125702431,0.0181587350118713,-0.00224870794106268
"62",-0.0300869616184362,-0.0178828294967717,-0.0936429173006859,-0.00760800268471812
"63",-0.0113919013054357,-0.0166516335924423,-0.0316742020952289,-0.0359057835012484
"64",0.0182647805931978,-0.0220786225287994,-0.0148999891227418,-0.00300622944892634
"65",0.00200828484719588,-0.0104152109476469,0.0102916860365475,-0.0195335297803441
"66",0.0294532669134955,0.0158141442777909,0.045863416793181,0.0385817247510387
"67",0.00142440943475087,-0.00838579337627407,-0.00958091161175798,-0.0318306442576192
"68",-0.0400078754739073,-0.00476049694032427,-0.0339810081931439,-0.0138745130877079
"69",-0.00174151057822314,-0.0225981736813222,-0.0125931830248268,0.000835421936642264
"70",0.0104948489494708,0.0125567425869692,0.00914292083267402,0.00251046156954326
"71",0.013784600185388,0.0142056250951237,-0.0294138852062933,-0.0321544601379602
"72",-0.00950517263494931,-0.0121464980254559,0.0112108797492169,-0.00404858852600022
"73",-0.00239370193035547,-0.0212680995385117,-0.00225225320432524,0.0105606180506229
"74",0.024327761577637,0.00578203403290867,0.0472165997220016,0.0344790124138356
"75",-0.00488746953611211,-0.00779787344844166,0.0396925225510404,-0.0121824653066835
"76",-0.0111005924549951,0.0168266227097463,-0.0158250411443968,-0.0107974470930429
"77",0.0206404353348276,0.00498607866834075,0.0121508177825125,0.0301909722791457
"78",0.0169827726291462,-0.00586339997040932,-0.0371968497086003,0.0158767548666447
"79",0.0245411089161177,0.0746252736508127,0.112057408915717,0.000432619517887498
"80",0.00283956650807796,-0.0100282883663629,0.0513626401106808,-0.010759733673737
"81",0.00829428917107882,0.0182509785921304,0.0338537265244252,0.0308653060309833
"82",0.00698776563986043,0.0511428820066566,0.0454957402201346,-0.00264550418842417
"83",-0.0083522084767306,-0.0106383982050556,0.0197125412639581,0.0258712020545089
"84",-0.0195780235603963,-0.0167244429411946,-0.0212129166391926,-0.018357354548672
"85",-0.0252175221696343,-0.0250494793044426,0.03509131981127,-0.0382988495579412
"86",-0.0114079536386106,-0.00852681622916164,-0.0138784031720774,-0.0240467186820318
"87",0.0117991644410179,0.0113853222251254,0.0697588615665342,0.0249010544879474
"88",-0.0169418859836483,-0.0288421246292851,-0.0195128142235817,-0.00808687105592797
"89",0.0312606856331085,0.00526724687957421,0.0310736366246579,-0.0238754796470305
"90",-0.00224674646813569,0.0043586619440377,0,-0.013974744484067
"91",0.0296089685163524,-0.00746040140350481,0.0150630463110955,0.0123204843880407
"92",0.0350087636791237,0.0187564110673544,0.00676821534613881,0.0204557330853265
"93",0.0124700496451832,0.0191149496321669,0,0.0195917680439488
"94",-0.0092258123684983,0.000643500665706487,-0.00338983375451154,-0.0136695849146744
"95",0.00396376509909427,0.00032190568441503,0.0153455696746603,0.0297115504364426
"96",-0.027559973302967,-0.0226016305608838,-0.0187239512662875,0.000437158476907288
"97",-0.000275938191596305,-0.0149955949603568,-0.021685587071589,0.0203187202218542
"98",0.0134714904475277,0.0347037980083193,0.0149628726767123,0.0285151703080212
"99",0.0057491569698321,0.017814236275127,0.0288890098521371,0.00460194093336906
"100",-0.0296502740017501,-0.0277168886717967,-0.0455006875190334,-0.0468554172815051
"101",0.0109815791304852,0.00573798195302139,0.0149380371088664,-0.0157208477869482
"102",0.00859445267998117,0.00384369467456294,0.0168638060520049,0.0170421428481482
"103",0.00684503615596473,-0.00862762980692875,-0.00508906950747129,0.0128633399307563
"104",0.0258426989736089,-0.0214046572919464,0.0326770260263004,-0.00888894741724615
"105",0.0357285440021285,-0.0172897175115564,-0.0104348772925796,0.016507178302135
"106",0.0188102754752228,0.0151120840487417,0.049655590445861,0.0408594821024979
"107",-0.0116289160665581,0.0112501186545963,-0.0126469617007674,0.00658206419564048
"108",-0.00075046907837444,0.020638929130395,0.0217794452640399,0.0547750188697198
"109",-0.00344492215172838,0.0326080406082761,-0.00548949228477148,-0.00199104097631387
"110",-0.0118907465215218,-0.00462963789874199,0.0258794479878208,-0.0327737818865207
"111",0.0099488533128885,-0.0105022297749721,0.0558374096848351,0.0263301412518167
"112",-0.0108349854045461,0.00918340333917663,-0.00197824001210571,0.0351971978046281
"113",0.0269316097460406,0.0179526098155273,0.0139305735359468,0.0666560805886326
"114",-0.0190768083382895,-0.000670690836677032,-0.00400000533334602,-0.0168162357073486
"115",0.00896732955678631,0.0438576624246378,0,0.0102731371184128
"116",0.0283210158454409,-0.017017253854576,0.00600602406021173,0.0370925445288232
"117",-0.0115164420615591,0.0265193489282233,-0.0119761910467156,-0.0095425927605927
"118",0.00997323187875334,-0.00458635483772453,-0.00198216120399121,0.00560225554866975
"119",0.0348325142251312,0.0188316099737735,0.0281143014808393,0.0337078470745915
"120",0.0177195357849225,0.0515198548235156,0.00612872194137355,0.036690506021095
"121",0.0389412137803354,0.0326261906928278,0.0418471099355005,0.00786690895342931
"122",-0.0184167267862312,0.00862074304390695,-0.0148465081169946,-0.0114770211775289
"123",0.0128560081015342,0.0218827112495076,0.0148465081169946,0.0139101124021706
"124",-0.0133535618061348,-0.0171489745993087,-0.033616610798985,-0.00969704568286654
"125",-0.0117037518256282,-0.00591367779004774,0.0103843093057164,0.0164187330742263
"126",-0.00864817334193886,-0.0309622256039668,-0.0528578318644445,-0.029005054456527
"127",-0.00372983485997317,-0.0057001864393445,0.0281143014808393,-0.0177100260380501
"128",-0.0450990117843684,-0.0346338841873566,-0.0688570849431892,-0.0579707747678225
"129",0.0344726036275728,0.025205189030401,0.171731442692574,0.0354069016679325
"130",0.00465527769051125,-0.00896866998276038,0,-0.0259754864032607
"131",0.0332082530719464,0.0206735421467307,-0.00898882456843322,0.0208399544316443
"132",-0.023832174038345,-0.00189717378095049,0.00448431244732859,-0.0028417183090277
"133",-0.00744340006190742,-0.00453858570300807,-0.0178178433167938,-0.0118478113670154
"134",0.0309429614246432,0.0267702410646048,0.0428475913826292,0.0612908560399314
"135",0.00751067537982447,0.00739159171613793,0.00230680609791487,0.00119331756404201
"136",-0.0399034960999278,-0.0413060632049989,-0.073447906123156,-0.0546012499006186
"137",-0.00160849318900471,-0.0148756926805709,-0.00641713432063354,-0.00563699350604977
"138",0.0285291171843694,0.00518135874199758,0.00427351077738209,-0.0067227143948767
"139",-0.0230496514197439,-0.0209297157101368,-0.0682788407532945,-0.0653756915506348
"140",-0.00932932615006715,-0.00651940012814989,-0.0198026272961796,0.0136916304179439
"141",-0.0336880589336235,-0.0458634167931812,-0.0663750689448727,-0.0476280489892547
"142",-0.0196204945208835,-0.00447274098486912,0.0110702237542471,-0.0264420493977271
"143",0.00532685225803397,0.0117404663472587,0.0168385643628295,0.0123855930585038
"144",0.0142936422628494,0.0299687507952687,0.00378072283990593,0.0360353630579985
"145",-0.0174931574475172,0.00394477829101655,0,-0.0118162176265734
"146",-0.0279004148128451,0.00179823821160151,-0.0480684030410223,-0.0331522073169005
"147",0.0102595502541928,0.0325618670454244,-0.00719427563402709,0.0104296947415377
"148",-0.00238841731692019,-0.000371816327020022,0.0144406841547944,0.0350556596525787
"149",-0.0127409130915649,-0.0136609102497038,-0.0251359732715423,-0.0113111745815229
"150",-0.00966898830801939,0.0203748481890522,-0.0123349581579514,0.0206618920639566
"151",0.03803756730475,0.0585683541510674,0.0320312081336753,0.0747505424569559
"152",0.00227427889704044,-0.000396746682450911,-0.00900096085897606,0.0204552586614018
"153",-0.0186471568495113,-0.0297012844748286,-0.00892066575837938,-0.00286615272160828
"154",0.0131975520819465,0.0293046951378835,0,0.0237485820824322
"155",0.0208992428520401,0.0212390271796852,0.0125113338891081,0.0201309344069774
"156",0.00525503527721574,-0.00726395445822517,-0.00716848947861252,-0.0130720815673529
"157",0.00108535556045677,-0.0127848325492056,0.00896866998276032,0.0059206804097278
"158",-0.0468231880189161,-0.0254765885498822,-0.0475023339850034,-0.0424358933848251
"159",-0.0190621607684559,-0.00809408928497489,-0.010256500167189,0.03004269846948
"160",0.0178785535878153,0.0359554166438752,0.048790164169432,0.0505218679819411
"161",0.03139102831618,0.0282504662858517,0.0857135182740297,0.0262515074800341
"162",-0.0104728892262195,0.00657086553113905,0.0296171697036464,0.01146509374021
"163",-0.00181022828132827,0.0390723928801001,-0.033500669730044,0.0096556913680647
"164",-0.0807496631010485,-0.0456432584112392,-0.123794217346664,-0.041184154029607
"165",-0.00430048522946493,-0.0226638595772118,-0.00171086440362943,-0.0660504130345651
"166",0.00750316150315509,-0.044990963349215,-0.0693346934010642,-0.0454365489644167
"167",0.0465332985815819,-0.0404852890272441,0.0160775167275328,0.0577138151316488
"168",-0.0278095869544649,-0.0153120016761492,0.0862749457022049,-0.0318406058556588
"169",0.029125472808499,0.025280701544463,0.0451747993567013,0.0236390367422412
"170",-0.00160806993208069,0.0236541908978896,0.0338378147815585,-0.0139052066676121
"171",0.0313058723238228,0.022282904289136,0.0134746985833602,0.0796112702612209
"172",0.0464267196677227,-0.0188575917108017,0.01365874893104,-0.00868491811351891
"173",0.0389555130835328,0.0290099631748198,0.0319388425078326,-0.00738464894337862
"174",-0.0111003425125131,-0.0452704840466,-0.0240492552326697,-0.042022989774848
"175",-0.0292750651063316,-0.00074990629686035,-0.00788958727516293,-0.0301122925253728
"176",-0.00361948620814098,0.0366453216780043,0.0278902539818324,0.0371919681134344
"177",-0.0223681273605768,-0.000388726924234211,-0.0492710490067828,-0.0326179178287274
"178",0.0399583123016034,0.0160630290176775,0.0926214898803965,0.0433323060411338
"179",0.00304219272334425,-0.00354820005609722,-0.0311551677797955,-0.000598265049253125
"180",-0.0521748813009891,-0.0476463532797807,-0.0805145170712955,-0.0743215515313093
"181",0.00259087243915934,0.0433266921352644,0.0463403372587019,0.0460177753684574
"182",0.0122832804939866,0.0126184639592115,0.0423877783499824,0.0537442760066906
"183",0.00154607328261495,-0.00158604315563474,-0.0324572101473817,-0.0272331504583587
"184",0.0211093758154056,-0.0106404944807077,0.12078153865264,0.0653746915261343
"185",0.0262583130074833,0.0246044157742194,0.0603431299074686,0.0644960321315951
"186",0.00994546389551133,0.0600221516706888,-0.0283037761628518,-0.00812462153649452
"187",-0.0207563799997271,-0.0450451463591987,-0.0387733859259607,-0.0253009501213609
"188",-0.0337678028290658,-0.0810460941869178,0.0180591815383975,-0.0150084383254286
"189",0.00841388572300612,0.0375523050434945,0.0490179805504151,0.0275788982606414
"190",0.0896463870958446,0.138396221745361,0.0315943654182172,0.150606147981533
"191",0.02162526967218,0.0430666643740791,0.00743497848751821,-0.00694179416995809
"192",0.0375990836197755,0.0122469736099731,0.0748736689752054,0.0725128399217185
"193",-0.086072736737831,-0.0774874954783743,-0.185444468098439,-0.0748161038958114
"194",-0.0241967199531572,0.0348094046658612,0.0982097022996594,-0.0339271137211577
"195",0.0367712841656316,0.00546449447207875,0.06339257683602,-0.0413852161628544
"196",-0.00370495540006751,-0.0036463121530202,0.146327954146049,0.00284900477607487
"197",-0.0258849693568993,-0.00815591290360776,0.0919823897116503,0.00931572484019165
"198",0.0540126227062043,0.0279130453293262,0.0903391670823044,0.039652771919994
"199",-0.012883455706188,0.00511748034715554,-0.0461893824693746,-0.0133930573364381
"200",0.0612328456615533,-0.0198574984860752,0.0389429739486073,-0.0553500950831651
"201",0.0177579037089888,-0.0239451241723176,-0.00719427563402709,-0.000699056302497882
"202",0.0244940730099306,0.0166557980467423,-0.0247800289984869,-0.0363676441708748
"203",0.0358419868242741,-0.00452899324870645,0.068743152419603,0.022488170843138
"204",0.0216171035401146,-0.0359479576382665,0.00751883241402732,-0.0352101368687867
"205",0.0121018015865714,0.0198113457300005,0.0743982900538593,-0.00332115881492698
"206",0.0221592981687096,0.063323904110995,-0.055350095083165,0.00798939003347886
"207",0.0839229786175264,0.0655812246777037,0.135731613534125,0.0756517382195911
"208",0.00724640852076725,0.0168328381502325,0,0.0226039518144905
"209",-0.00747201483870095,0.0265848338110617,-0.026088436084298,0.00221484032955282
"210",-0.104028702050286,-0.0791889970295768,-0.101921131355917,-0.0802132542758088
"211",0.0788575323828512,0.0924835294501118,0.0723206615796263,0.0966070640514851
"212",-0.021758908917866,-0.00640343703520702,-0.0761891383575464,0.0015037596818665
"213",-0.0423533225150216,-0.0293522120125273,-0.0743837201218279,-0.0541860213892156
"214",-0.0298772349943425,-0.0290170523762724,-0.014235115821872,-0.0336401727817269
"215",0.117132466385346,0.0259226713615244,0.0142351158218719,0.046552834262749
"216",-0.00337116849218303,0.0297905489691591,-0.00714288751238011,-0.0100575560440424
"217",-0.04045396629462,-0.047146778425702,0.0215835716671744,-0.0406218315297237
"218",-0.0208962827264126,-0.0556108832487526,-0.0322031404946347,-0.0363921560775347
"219",-0.0939856635869224,-0.0320328848325906,-0.087598059317986,-0.0849687009267327
"220",0.00173027054606882,0.0191908534109664,0.0294620327303163,-0.00545621238416435
"221",-0.0271441169457987,-0.0159403281435185,0.0652031938107621,-0.0102256530117572
"222",-0.0696168964681999,-0.0635205613317871,-0.0585365024525729,-0.0461935383221659
"223",-0.0180029096231093,-0.0147316355679612,-0.0741079721537218,0.00286123228103219
"224",-0.00717951801863613,0.0435137861859665,-0.0890796300536888,0.0115275051710674
"225",-0.0295373042090269,0.00405132221917872,-0.0444517625708339,-0.043115015710496
"226",-0.0061000931059707,0.0136241889395436,-0.0268112574506567,0.01454164326644
"227",-0.0646001563189523,-0.0266201146216206,-0.0261111440036858,-0.0611878434590341
"228",0.0513743940996911,0.0464776131076958,0.080472353222573,0.0106554018268276
"229",0.0145415518827812,0.109827359422136,0.0515873687904933,0.0561821741743257
"230",0.0089271546739844,0.0115184519562708,-0.00586511945239813,0.0206074836841065
"231",0.0284650797504581,0.0664008826576345,0.00586511945239806,0.0875899133089193
"232",0.0163641581190998,0.0291199565112779,0.0148150857851407,0.0152674721307884
"233",-0.036826527603934,-0.0557733943732186,-0.060800199026964,-0.00956945101615079
"234",-0.0384220630869995,0.0171322233978505,0.00846267391873373,-0.0465200156348928
"235",-0.0189874072838297,-0.0366662140235093,-0.030685810703444,0.00607904607638219
"236",0.0909416733656188,0.0217281769146427,0.167054084663166,0.0506516517604676
"237",-0.0200503675163744,0.0199673855138684,-0.0192932029346789,0.00708081490810403
"238",0.0726473182515235,0.0336118225703661,0.0522994994028491,0.117783035656383
"239",-0.035487594831316,-0.0386411709753681,0.0237702193339119,0.0153792851794877
"240",0.0407926470610092,-0.0258611386143363,0.0173314563516399,-0.0475593947832993
"241",0.00385923478157791,0.0131221128369067,-0.0138891121606672,0.0220571019723632
"242",-0.0600287355805673,-0.0292862578779184,-0.0699119891987144,-0.00645394854074368
"243",-0.0298937624071404,-0.0242884167715549,-0.0191088616980465,-0.00783200870673274
"244",0.0293736965204077,-0.00260484648459314,-0.0817398834961178,0.0397882500584126
"245",-0.0500273287463811,-0.023651488081961,-0.115195712091432,-0.0204535983509568
"246",-0.0449676918999617,-0.0563111715627155,-0.11258821877928,-0.0507508479408347
"247",-0.0390994716400387,-0.0464545170267147,-0.0540672212702756,-0.0561269542332863
"248",0.0306248446490664,-0.00639855930764271,-0.0238364481545113,0.00390625496706521
"249",0.0600582874492138,0.0221105276304908,-0.117069004922726,-0.0314632694557851
"250",-0.0558299513396926,-0.00649955862810497,-0.148420005118273,-0.00441501820911683
"251",-0.0375775656735881,0.0121044308441609,-0.0480861866676378,-0.0704602231809011
"252",NA,NA,NA,NA
